<!--

      Copyright 2018, Cordite Foundation.

       Licensed under the Apache License, Version 2.0 (the "License");
       you may not use this file except in compliance with the License.
       You may obtain a copy of the License at

         http://www.apache.org/licenses/LICENSE-2.0

       Unless required by applicable law or agreed to in writing, software
       distributed under the License is distributed on an "AS IS" BASIS,
       WITHOUT WARRANTIES OR CONDITIONS OF ANY KIND, either express or implied.
       See the License for the specific language governing permissions and
       limitations under the License.

-->
@startuml

group  Zero Fee Bootstrap Red and Green

group Bootstrap Red with Zero T&C against Green
RedNotary ->> RedNotary : Read Zero Metering T&C from Config
RedNotary ->> RedNotary : Create Zero Cost T&C For Green
RedNotary ->> GreenNotary :  Notarise Zero T&C Contract
GreenNotary ->> GreenNotary : Check Red's Credit Limit for Notarisation
GreenNotary ->> GreenNotary : Red is under Credit Limit
GreenNotary ->> GreenNotary : Do not charge Red
end group

group Bootstrap Green with Zero T&C against Red
GreenNotary ->> GreenNotary : Read Zero Metering T&C from Config
GreenNotary ->> GreenNotary : Create Zero Cost T&C For Red
GreenNotary ->> RedNotary : Notarise Zero T&C Contract
RedNotary ->> RedNotary : Check for T&C Contract with Green
RedNotary ->> RedNotary : Find Zero T&C Contract with Green
RedNotary ->> RedNotary : Do not charge Green
end group
@enduml